250 2
0.8769018847821505 5.755621025326464
1.4171609142793375 3.458518313259378
-5.108643794523062 -0.7106356519826419
0.7688179432017967 4.554464784716665
0.09763470056792223 4.406490534835694
-3.5295340816787677 1.2895197227154858
-3.923013715901338 -1.3987742278368298
1.0609883294506834 3.798746779221294
-4.322772154546388 -1.8284675992055108
0.49872047304807454 4.064447551869548
2.8055987633210053 5.238508954736244
1.410110001643583 5.908037066722541
-4.226386718470918 0.5526030535544852
-1.4006397585281536 4.179535167605282
0.9302442126609474 3.6884874509615315
-4.498957252566902 0.6837207416636161
-4.207812302792055 -1.1099964401831548
1.5948050040276558 4.387134488415346
-4.11072224830116 -0.651735016625253
-4.735502929714174 -0.7393884071317868
-2.3642196438552943 0.5101881496070511
-4.274176770033191 1.303966880734147
0.8382848402490843 5.760136980627437
1.3697708046237693 3.945710132533675
0.8995331427155605 2.7027413989394393
-4.219565027103853 -0.028909878569253117
-4.99936076345787 0.2241291173209049
0.8374968204948415 6.3747853160238614
-4.221919375527372 0.37169921490154034
-5.1497563210579385 1.451044340789991
-3.8885508759347567 0.7536659540304184
-3.95233259643661 0.00820443528922482
-3.406683369245717 1.0436594218939812
-5.459789397436477 0.9057010687746727
-2.5266685232725266 2.3008248414786667
-3.390096064138852 -1.5436383115794725
1.4513675643319865 4.771551212238852
-3.742486978368336 0.06405893277618996
-4.05769203223388 1.0621046727291399
-5.080435412498922 0.44550092082516235
1.9964266448591785 4.184486271990119
0.4874597703960284 5.882700618582825
-4.11465020718617 -0.34887362217043005
0.8646769627317862 5.881305580702005
1.9787765741028032 4.312824011378535
-4.067327549925511 0.42807641553124104
-3.9691401856732575 0.9505961233437079
0.6281570016444677 3.676713214950597
-4.925308787448935 -0.4892327130789399
0.5432198708514391 2.65488528159596
-4.946551845482823 -1.1276425970568744
0.5559419581938866 4.052397387310361
-4.549415939946751 -0.35686927280171943
-4.773436958315642 1.6740398299298946
0.23988041324832277 5.12747198916661
-5.616280951084796 -0.09767591125977204
-3.0138153692685012 -1.147141988631756
2.12608199149935 4.297044207574987
-5.405186272692871 0.9020004578017303
-2.507174719482628 0.4465835411149819
1.5786785210380556 4.018494425493864
2.0133268014330024 5.1704080421490985
-4.553565982445519 1.3660990298035216
0.2996348275904579 4.228427428598387
-3.4380229583578297 1.178927254230889
-0.2402291008850983 5.415453069332423
-5.5168901693424335 0.3406765437618757
-4.7456782748784025 -0.22628739987492535
-4.6102146699596895 0.48371218164641705
-3.7167874230481264 -0.17276663458162983
1.3993281263563149 4.028844057368144
1.1465149441846842 5.214050510033573
1.7823251069277468 4.600580845859576
1.777208117842973 2.4881558763141935
-4.66752237257018 -1.102372775335404
1.9278231491893543 4.93047450922083
0.6044233430670332 4.936312059800303
-5.005245199975831 -0.5908736952569572
0.4733614578850127 2.4399316132968627
-4.528102079808577 0.2558449233810419
0.22946398350543973 4.189698886187011
1.6271224913344655 3.3930630005682025
-3.8946286634530694 -2.469021080440507
-5.179270236325898 -0.333665732644961
0.43238825201567566 3.499238098649213
-4.731130536958975 0.222150208428595
-4.395508949719096 1.0133578116069724
-0.4449988497602133 4.744964359405251
-0.16652022653490484 4.9591165948117215
2.001145822770387 4.738679572044899
-3.0437248013737825 -0.5759080966930011
-3.367829583658254 -1.4625339512830942
1.285510149577776 3.766964272256927
0.43121237281918723 5.63120111092483
-2.5909907234582135 -0.09757710691539234
-2.8289694643061756 1.0340389486596833
2.048496365292859 4.063750212500365
-4.503601877596704 -0.37017607958368814
0.6020965162952201 5.954620483452116
0.5251340986339318 2.771126868337424
-4.099974161321512 0.9234411263226419
0.9462611869875638 4.411418099880654
1.136105388412035 3.002621377931537
0.33795673725378417 2.593257226785111
0.40870329221096713 4.298511631190616
-4.695384287333766 -1.6096128092110162
-3.0794180535190394 0.1897903233155614
-3.1775545556174714 0.18927907347225745
0.09455142555768781 3.521262572261251
1.5217145566713866 3.8985173383082468
-4.679791674271047 1.8913420267873307
0.5509749191731745 3.992791952569954
-4.390619319618957 -0.20164974508075034
-0.08285367641501074 4.216610342143392
0.5017439857556111 4.402164794435301
0.09352026434423133 4.972361053618829
-0.811396146908959 3.298258853169555
-4.733051197656815 1.4765210503729387
1.9764520471541833 4.740235042396739
1.5187999358541902 3.7324282579632064
1.7682175634552848 4.6058634649845125
-3.9275109451022243 0.17411088796542373
2.5634869512512823 2.039663188150595
3.4244592723798295 4.098859327917591
-5.373945049306489 -1.8370609795112234
0.7457725844239136 6.105290860213323
-2.5481294825970426 -0.5180729503621455
0.2001128209746138 4.242530137943901
-2.903597147097746 -0.07107902288634249
-3.965494119367984 0.6242861120506478
1.7925069369579991 3.579367631863643
-3.7358828660819117 -0.2969544376511245
-2.47469436151784 -0.8686704077744032
1.809144289478286 5.70157220964975
-3.855382084145691 -0.8265807145658257
0.8894000271771828 5.060335982746382
0.18454523196529948 3.241468267603542
-5.404145902062496 0.15615267947802366
-4.756817028480986 -0.3724215864738398
-3.626985126756996 -0.5373161981326653
0.9414907181572953 3.598655843220633
-3.31979846751417 1.3202413054022246
-4.951884670626052 0.18079524921768014
1.686508691256343 5.941456157175768
1.5965138379770274 4.444710788983792
-3.922989870394512 1.9863792690770634
0.5384341215719153 3.5054824730380982
1.1536091839777427 3.205180705819224
-2.7245905856038277 0.6783358115155169
-4.965048492775005 0.0008832378343366087
0.26514218588690286 5.37344966332211
1.3653834243479144 3.814541989301929
0.4055666400844725 4.546748019358163
-3.973644536821777 1.2900767529526451
0.999193107490246 4.598132361029572
0.4789733739757299 3.6332215106426773
3.5466485889967956 4.3897520663769996
0.4839871868542214 3.698180821352469
-3.313436030146504 0.4471517027337447
1.5501873548035179 6.026747125560573
-0.05058382282664642 3.9778715428818088
-4.823470037859665 -1.1414733038599254
1.131165090496 5.280411318704782
-4.071880450912562 -0.8250929341445559
2.027538214553231 4.044233642841285
0.9009721993942357 4.386307676794236
-4.495436706566676 -1.4133651522225184
1.9000887423238533 3.1719955852617674
-3.2230270583167138 -0.5685859912432268
0.9765216994131738 3.7334602250385434
0.701826197807232 4.390499034461491
-5.225718262825337 0.18112566968079982
-4.101757188022849 0.9175593160054805
-5.880058454565837 0.30348646489204917
-3.3389359060319252 -1.1266052869653065
0.641379837874376 4.815148344777601
-1.6082059251219318 3.288300000046747
1.9592908125131387 5.3633204898603335
0.9441912071244947 4.670993418827233
0.15196148928701425 4.5025221630639765
-2.3402057230128284 0.8168411685857885
0.5879856794595864 4.013757131543802
2.354746870284795 3.1564858364017674
-3.6811065715835145 0.8887544815905597
-3.1079779004955297 -0.7515990906990152
-2.4993484210740595 0.8158667044741386
-4.514165192406171 0.5590899300755319
-0.21764405980530555 4.377663325527407
-1.0074739393274363 3.921970774000645
-3.927037892138672 0.1586279492529621
2.0094875496360056 5.856535944358832
1.2191332911127473 4.421288100587438
0.05243110225425629 4.49673942718933
-5.86023043963031 -0.01098228490192013
0.48630659378002317 2.771056211832126
1.5686274304701935 3.408835406930031
-2.669085637726356 -0.2235533336362992
-2.815082278686407 1.0232722662582825
-5.013769589395153 1.009723123220795
-5.9324702576974815 -0.8271985519378369
0.6953143679894388 2.5941295191039826
-6.590774450277577 -0.1705384424160512
-2.8395351100460378 -1.0417523058006644
-5.183408257136059 -1.2588145186320243
0.3630679191328481 4.131507405365214
-5.33951161660575 -0.8127975397501539
1.749291138617702 3.6949638736742885
-4.100260126015331 -1.7791237459797262
-3.5559696369641065 0.2889637533757673
1.5990048691603813 3.65862037536635
0.39499344190902996 4.600729480103849
0.32400533620420213 3.9559288023119503
-3.8053623013843088 -0.5866135972438217
-3.924519375978419 -0.14220244927664794
-4.187574122802714 1.5673534251641885
0.76630866922855 3.8436733710200075
0.37153483372583196 4.82127561460019
1.0181577972818208 4.545128601135967
-5.078120041752879 0.5259671706017299
2.3534915710586404 4.376001092866317
0.8650293090016916 5.713358730424125
-3.951001078263286 -0.037702412337904556
2.5724337377807767 4.787603497224577
-3.9231033364113923 1.3542292792931558
-4.230458286012552 1.4002026058006525
-4.105437569702312 1.2045536427398285
-4.669258566220044 -0.40408758742829476
1.8028152018409775 2.9987734836324895
-4.590296906209475 0.5588536567661178
-4.893234342007968 1.0811144269231288
-3.4133381872503636 1.6447319927129136
-4.369360298015589 0.20307623671739905
1.951014957110519 4.731526212048274
-1.7411715206641083 0.7812786041193012
-5.207092340671416 -0.9732746573010178
0.7265318277085441 4.298973786849788
-3.2298661353850546 1.3525349832093834
-4.4785255593010405 1.0239868764209907
-3.9168262988819373 -0.3712722414591395
-0.09611491020400109 4.036248654395934
-2.5336793488243954 -0.08720603701226626
-0.32203421233717555 5.43072071532616
1.708026693414027 5.392575011565122
0.9942640284274021 3.3631647762944414
0.29256856637259043 1.985781596501293
-3.86617096487482 1.6804683484161038
-3.2796229686541576 1.2769519952784367
0.7808416152866925 2.9947144784595614
-5.00278704356161 0.07609954140671082
-0.1037529445688341 3.5991812322925636
