250 2
10.36203898047659 11.081172550744409
10.24349895433719 8.99215671102383
-0.35249370505782407 0.1165864599492119
7.712862786449835 9.49924730668926
-3.394007393738231 -7.959932051370797
3.3967257172406784 11.332641265457744
6.267181952295274 3.189601510102098
-0.8808817254690917 -0.34450815695288983
-0.7424691070577548 -0.9504957893622907
9.138131947540408 0.19324483391456687
7.632079722495423 12.561399470895742
3.744618226071042 8.62949074626821
7.172366092640449 10.091700672172568
-5.683934904531829 -7.03096017570782
7.346119851185557 4.129205505684511
8.441552771988977 0.9438942002617849
5.410878758650933 10.092023833798201
-1.4667228546196076 -3.130142974181516
-3.95243241047368 -8.64632254472808
-3.4818489403866977 -9.6460412794202
2.1664711122447726 0.24358853101195566
7.997352989136954 1.0513929855913293
6.274265965247922 1.623096568181325
7.356964308058178 9.016131657373974
-5.170736380418047 -10.458244717915042
-6.352383765723261 -10.018189979175306
8.929819841442958 8.978471964093146
7.65489906683733 9.737127678745349
5.998237282833205 -0.2700904184175553
-1.2454044928170154 -3.028335931546902
9.920879079698112 8.994296217834538
7.426093377634611 3.4019013427029794
-5.495727667586593 -11.200100452720733
9.310686461594024 -1.1580675854233584
-5.435741013780459 -9.170317218237132
-1.4749598066606036 -3.2810158283918978
10.060668966288778 9.983724198877743
6.4002188832750235 -0.9265593160627594
-5.1585890481707795 0.5713235918424866
6.948261406322606 10.013368864814225
-0.9378384465570937 -1.764051255375542
-7.289916035506375 -9.871704844920327
-9.91183876746381 -9.806433030977399
8.297482783016978 0.8943339148062062
-7.793986225683775 -9.785398215082107
10.67329346955552 -1.5502030224722376
-4.085216396287073 -7.9794063070650285
-6.211023749390852 -11.094306555653546
-2.3982564739477716 -1.3984024442083216
8.819795042728606 11.030729120300238
-7.885145588574306 -7.217445860213884
8.207584433809515 -1.0860084090960231
6.527687188246215 8.142241240293586
-6.639669783356794 -7.345925308977953
-5.82868008294164 -9.859732584686569
9.521128949829993 2.276489826556043
8.27526936624074 7.391008263808728
7.361609215064472 8.450146874440863
6.6219352101725155 0.4226803741490893
1.4252022761244425 -1.9207960034165825
10.110332294013762 10.555655033845536
7.470936029800759 7.804331210622394
-5.968343926890088 -12.895402986452178
4.2899291462128675 6.346321094974233
8.777351726225072 2.9061549544698684
6.496953660183517 7.0078078716240935
-5.589290020525178 -8.99919982925002
5.242211573665732 8.233978372788874
-3.7241439509249323 -6.8005637458476595
8.128374102134638 0.462782802398958
7.602340212077179 3.0801700380960257
-1.4039517682875018 -1.282211878479572
6.825378486209774 8.025067294874868
5.880126465448207 -0.007732413865987664
8.92015491306011 9.893357049247053
7.462168971238775 1.9265602955998162
7.8283690967218815 -3.6467776784248027
-1.5947583310596158 -9.827604187179348
8.074660181748023 7.752140244416108
7.27718458420875 0.9026975005217244
6.430069917612924 10.952231513200086
7.7268652924696495 9.371892562569887
-4.120653304637758 -7.698909452666537
-5.767865929802598 -11.908288962155092
-3.6214452834778807 -5.99360175796124
2.1392244508812475 11.30802020691825
4.036495733565967 0.061267689606002707
-4.414237554860685 -4.76535644571206
6.6170420918648984 8.676259625935895
5.07167423722809 -1.316420782263333
7.125841686619057 10.220209937959156
9.647327540085008 -0.7897688488069348
7.509674030393329 -3.372417375583901
-4.55772012056085 -11.25986129410207
7.611587352384687 -0.030908133963812423
-2.861330797029237 -5.329055465040851
-4.571069823058454 -11.006521183882892
-3.063306018884842 -2.8732062437839554
-0.046072874687891785 -2.4493672956978214
-4.04789226180218 -7.261328033768038
0.7645845022070272 -4.074390903382675
6.821213362644182 1.4206041760224468
-4.492200115474143 -9.482486345157849
-6.043577139295746 -6.4414397345619445
8.038127542822378 10.007972215922193
-2.3979427810537874 -3.4242032797803876
11.671856712773128 9.12115705821698
-4.440051234889827 -3.6611359984717393
-9.450089317668562 -8.568089618915783
-5.222208713882823 -10.405626655086785
4.927534957653657 1.5946745718083717
-5.101583332326569 -10.35451876977932
7.6857849812335814 7.074083064754016
-1.0543389224456856 -1.4131998500890566
-0.9891268216493363 -2.9956898471539226
7.138183871394453 9.054250565598114
-1.866333663964641 -9.652766371121094
9.75826462503021 8.33899350091153
7.684859391248706 -1.3109253964677396
9.684986895671848 2.982678050086865
-1.851151028887457 -1.29413755176959
-6.667760593894316 -5.384519217894863
6.72292805963062 -2.0289970067931073
1.0149150997047132 -2.556327477006148
-1.0312706718357814 -0.7454940682538242
-7.003362155195422 -10.660744459959382
7.553458663019528 0.5382675483199004
6.962909368798775 -1.6020136667773546
-2.4149070143593794 -10.93904712580248
6.404182501472847 -0.6824857231619079
2.17044868959595 -1.7062861994525735
-4.3682333343805935 -2.9102279310854633
0.024917753326686887 -1.454655251448378
-0.9234842338968727 -3.2912553439313483
0.9246817836067018 -2.9987650459383017
-0.420326499439417 -4.406513215984004
-6.6251723773776 -6.310879777957571
5.217090483180769 -1.3768904841648808
-7.013466781173901 -10.676696170861838
9.808189405725933 2.1934400444642135
8.376015049336281 10.72802532614935
9.577505986106376 -1.075604335199765
-5.593747001273611 -7.926155571063614
-8.879069546049568 -10.320619174998978
-4.127287076243324 -9.52966431234408
-2.6338945158096183 -0.4434700617295795
-6.196827452951178 -8.47434374095294
10.338349618946523 9.751248808404643
5.456761905370199 12.628631394328954
8.4238793905242 1.735136708068082
-1.3946291221329896 0.20280615576504957
-7.670820089981008 -9.909275484950227
10.405909542422187 13.118558940164068
-4.3835445353962115 -11.455908391317728
-1.8473372528345522 -2.203630486711308
8.682075523911177 7.329430341406869
6.8425175624879 0.8859281985496378
5.836217609181636 -0.2717836463028577
-5.470127352712341 -10.156368700613946
4.339655537964877 10.059383250602389
-6.727017817495138 -12.08383253268681
-0.12950059865466224 -4.534836974231968
7.665191691925166 11.632545314331068
8.03070813184081 11.453238911435136
-4.112476614601349 -3.98219713911281
-3.284625715725686 0.5855013894380137
6.515932915431688 0.3254496874409647
4.7887860648053096 2.5497929523058387
-1.623785645857697 -0.4695482966659741
8.37888408086312 11.353252083253958
6.839450486122136 -1.413625824947057
-0.008237024987178376 -2.54287738830652
-2.5296283251415623 -0.6434542703482957
-0.4340560748442116 -3.6416474626336237
-6.185845163644996 -9.452160576325284
0.25706926066499025 -2.6565291671270224
6.169857024199615 1.2537741586316589
7.1603132852543805 6.396127312207026
-4.911908694114942 -10.935552808664893
-0.6851519016007945 0.7141264130265497
-6.107854519292198 -7.858556140972254
7.280616910578001 -3.5215062941032196
7.743449340702961 8.226995580393606
6.486329478124765 11.482512049110353
-4.426737358253751 -10.643448377092229
0.011970854524066654 -3.112154716936086
-1.1201315265180076 -9.52227752602344
-3.8439543767965207 -3.7627486447408467
-3.1391001146059634 -9.886450992101995
8.392080438610051 -0.9697402527916752
9.748923975418919 13.674119890237268
-2.9858431716119673 -9.514937720093535
11.795236325451285 11.325951427910452
-2.838892080820907 -11.410137733789794
-3.6664353151519693 -9.141338992409128
5.879104508002097 -0.987731154342465
-6.983211475310222 -10.367494330688114
5.957173083514376 1.0978052869823283
8.022127324577532 2.1807581395511235
5.361204135732153 -0.48610021719329866
-1.1910916119954655 -1.9392773011091857
-0.9420617419385606 -2.814318139294005
-8.41968770506363 -10.094450550089727
8.67488888579971 1.3693714131092605
8.63266582068896 5.110116802833698
-1.9413854151235799 1.2495188726989945
-6.258794212551477 -12.28218597717051
3.6706992597637282 1.9752618467642291
7.6121453493735265 13.597434508086575
-0.3815502445239378 -3.0698209782349863
3.564552379692646 13.46753157209926
-7.546957928444671 -10.848543894193703
7.203991391928237 10.307258352139392
8.634442881477533 0.5220687021553871
-5.118825096543319 -8.585066612302139
-2.295703536261568 -0.33647862184177546
1.8957172889680116 -1.6411751147036622
-7.494693507307768 -10.455144735656292
4.67040487763593 8.548793641477646
8.312175428196472 7.106979919391093
-1.3135494155176877 -0.5204216072622487
5.046789897316556 0.6334868990989276
9.578817101075789 0.20656081513313734
-3.9092322210664037 -8.729868271902793
0.89454385127967 -1.7187089113939573
-0.7769343063981304 -2.7571102822145233
7.083575376545687 6.165047533891427
5.5589324948993895 8.24195295812566
-0.9320966642843297 -1.627328844242995
7.521737389102774 9.680093556069815
-2.2955577533821203 1.967966076639628
7.434135457221319 0.491240623556534
0.5933687397018437 -3.1366079723456606
-0.7219242537235422 -2.9292907848281398
4.77568909805081 0.796130772098679
8.198007205012004 7.413661709382747
5.476876142811921 2.249017214439906
-4.215106385630303 -0.9518899691757157
-1.4401090777391596 -2.8517407145989706
5.880195848648242 9.5144805182466
-1.5668846658663405 -2.5857411612244663
6.089104096466697 6.577286677324077
7.357341915936766 11.160252150100527
4.937235374289127 2.230290260018095
-5.875093383324823 -8.670055381403314
-2.7002924761001066 -0.031650342488485084
7.34577645382725 8.573772221815016
-3.2906585583500254 -11.314501739604118
8.30670374520512 0.3300121894126001
4.080959587283362 2.280974883235648
