250 2
9.340821007074144 10.477516329217668
9.264118637219237 9.125800197633762
-0.718892503561012 -0.613846219769111
7.626648175645067 9.453917641887864
-4.082745998461509 -8.599493885399246
4.833853601450906 10.64023137991453
6.661314488289317 2.2816646822232327
-1.0607906344153615 -0.91220156011753
-0.9712295283844965 -1.3043112046177305
8.518988014624405 0.34284565645483
7.574376781321623 11.435310218727352
5.058960518929377 8.891133985144831
7.276915020827229 9.837269819553534
-5.564463799563248 -7.998394436440849
7.359450775806559 2.8896437381883233
8.068260312797008 0.8285599523265594
6.137129098834013 9.837478924134826
-1.4398643062186365 -2.714671147736053
-4.444079832819741 -9.043628910512782
-4.13958464629287 -9.690505738842976
0.911025907634786 -0.5316684090814536
7.780836923892758 0.8981179898927352
6.665898261376325 1.2680438374509677
7.396360924921053 9.141313398213267
-5.232394166313155 -10.216049140221992
-5.996989533275352 -9.931307838684516
8.414090975934736 9.116945361384495
7.58914223942521 9.607840235571215
6.487291466872685 0.04304049318110381
-1.2966583074051947 -2.648796002501891
9.055364600688069 9.127184584393632
7.411198351744184 2.41903516214145
-5.442682646245744 -10.69607343921391
8.630640935482626 -0.5315329678226512
-5.40386775260648 -9.382684287489228
-1.4451940987157517 -2.8122947592839473
9.145816880246736 9.767402689774531
6.747397208335038 -0.38173349941285195
-3.828718902045866 -0.3196045461911099
7.131906106150978 9.786584532439313
-1.097644983354657 -1.8307294473321876
-6.603628060782073 -9.836523340048942
-8.300166299107474 -9.7942886369094
7.975038555226891 0.7964915323258908
-6.929791125014509 -9.780677873683034
9.512327822987125 -0.7852676623836907
-4.529998882463701 -8.612094874377865
-5.9055212874132055 -10.627618564641026
-2.0426213540192135 -1.5941331577533977
8.342898459119565 10.444876462459675
-6.988776595120147 -8.11906164406242
7.916869035151475 -0.4849064419637872
6.859769847395666 8.575854893043605
-6.182880485861756 -8.202195405027405
-5.658122444416656 -9.828776583427098
8.766809604341194 1.6908277105169613
7.990558315509771 8.089762967082814
7.39936645298395 8.775087950433019
6.890860713974591 0.49130394719481507
0.4313813666157489 -1.932152519594037
9.17795197465702 10.137475582988984
7.470107333107429 8.357207226785775
-5.748493166971534 -11.79303390221661
5.411808761374088 7.4137889166604936
8.285541989067422 2.098258087402378
6.8398834468845084 7.841809772139816
-5.503222992264829 -9.271961271085802
6.02799150854947 8.635214214069968
-2.900548545004435 -5.0896492941082645
7.865615291126552 0.5172525772388478
7.525240421089374 2.2108560826898915
-1.3992477209449212 -1.5189510269877362
7.0523936284309094 8.50003645777267
6.410866820329451 0.21280155494976521
8.407837198745833 9.708929828248788
7.434541382899818 1.4644027198982268
7.671494405271241 -2.141874792705939
-2.918526016728287 -9.80798762033419
7.860752372602718 8.323436601593471
7.3148456030568605 0.8019032642594612
6.796605731103536 10.394083893159575
7.635708620716711 9.371511630987094
-4.5529286466906145 -8.430596909767077
-5.6187721100325705 -11.154313062965555
-4.229911691822459 -7.327162519075415
4.020176311453627 10.624300106741916
5.2179292879350605 0.25744868072575905
-3.3470797004922757 -3.7727504528440523
6.9175877262077545 8.921396201400393
5.88775067265761 -0.6339968010720465
7.246810993401622 9.920422873886032
8.848467515682675 -0.29322202060025937
7.46527995058806 -1.9643475379265318
-4.835736586405557 -10.734742218931247
7.531223864817761 0.1978055007688198
-2.342257680718985 -4.137496877115622
-4.844374629198124 -10.570816265260014
-2.472947530154965 -2.5484179692435136
-0.5206202015569381 -2.274169238128956
-4.505847971914653 -8.147455991656283
0.003922807022127328 -3.3256551019250375
7.019805400868023 1.1370193484069877
-4.793341288996511 -9.58467607549675
-5.797173480881078 -7.616940033346459
7.837113606239066 9.783092583156233
-2.0424183762642825 -2.9049454631235583
10.188350127971903 9.209271010523448
-3.3637826699228963 -3.0582548693356095
-8.001387243357605 -8.993007605575412
-5.265699793849187 -10.182002158391944
5.7944840799918005 1.2496531339155272
-5.187648076371611 -10.148932350251819
7.609127242858079 7.8846937206356476
-1.173027644223746 -1.6037079497938733
-1.1308315790025787 -2.627672065541728
7.254797112962173 9.165978574123004
-3.0942512321374216 -9.694857268767086
8.95014348296178 8.703165179325804
7.578635184082715 -0.6304409632043098
8.872835334003572 2.1477730316251407
-1.688611948391951 -1.5266676391165714
-6.201056892680153 -6.9330502872677595
6.956209028329836 -1.0950755345913123
0.16590142893239457 -2.343378767210815
-1.1581011291232195 -1.1716630321357817
-6.41821084411028 -10.347078385074214
7.493611183463835 0.5660956481288694
7.111491051909231 -0.8187921969340606
-3.4492104588634285 -10.527156580619748
6.749961902463041 -0.22380352753583022
0.9135996341561361 -1.7933520582055607
-3.3173122637110395 -2.5723731786739013
-0.47468508931221076 -1.6305320330263753
-1.0883569633980434 -2.818920328162415
0.10751516557485763 -2.629661900049267
-0.7627843116902779 -3.5405577747847223
-6.173499811404631 -7.532460061425982
5.981843537685815 -0.6731242552436363
-6.424749131508119 -10.357400080364037
8.952554605215038 1.6370896162222486
8.055746698689237 10.249009301538512
8.803288863108266 -0.47817439414856144
-5.5061069209844025 -8.577638515788715
-7.631903861721787 -10.126997318335128
-4.557221087141275 -9.615202995440782
-2.195093028165114 -0.9762357337965645
-5.896335448540475 -8.932348508070044
9.325492596672337 9.616977437115466
6.166818193770008 11.478813228007667
8.056824595378623 1.3405403985541633
-1.3932154204920015 -0.5580570048294513
-6.850095390148013 -9.860833754185936
9.369207841274235 11.795825169430387
-4.723034737181379 -10.861596223011967
-1.6861442109459537 -2.1151630676082713
8.253785829296522 8.049918429058081
7.033590471355135 0.7910525394539936
6.382455207451081 0.041944875137672866
-5.426117736621228 -10.020717599615402
5.4439846619195045 9.81635854677283
-6.23939980206892 -11.26790007919196
-0.5746028464766131 -3.623590794827522
7.595802173305575 10.83428694095021
7.83231281089805 10.718265150841077
-3.1518226215009406 -3.2660003132798314
-2.6161543928166875 -0.31043067715871
6.822270993848174 0.4283899734424992
5.70470538461934 1.8676709095315356
-1.5414931711374003 -0.9931098858142315
8.057603130853662 10.653567791429728
7.031605892530228 -0.696894181632103
-0.49613818116235875 -2.3346757686404676
-2.1276266694975488 -1.1056372805498516
-0.7716681545992626 -3.0456446402638875
-5.889229261342357 -9.565053519193325
-0.3244694080933084 -2.4082151549360864
6.598339534815656 1.029070513624713
7.269116145459773 7.446016468987596
-5.0649174281170275 -10.524895551883661
-0.9341419248535223 -0.22720272071906922
-5.838764726761135 -8.533897708082542
7.317066520119317 -2.060816838144915
7.646439475455913 8.630695936637736
6.83300897614061 10.737206592866219
-4.750983034324493 -10.335886802042525
-0.48306249441978844 -2.7030316871654803
-2.6114145549660703 -9.610423310174486
-2.978072938215463 -3.124004228686208
-3.9178059943171006 -9.846064964695904
8.036248802963586 -0.409674105531562
8.944099533213297 12.155305784183636
-3.8186397370856913 -9.605674023984546
10.268183994998946 10.635902661501577
-3.7235537371620637 -10.831979915199774
-4.259022888788046 -9.363933670776989
6.410205553746674 -0.42131527712324957
-6.405172168890445 -10.157328301428098
6.460720514372266 0.9281494790280873
7.796867376236661 1.6288836777490727
6.07509354816024 -0.09673055308555367
-1.2615146786383094 -1.9441110063363098
-1.1003777038956062 -2.5103139016323697
-7.33465678814265 -9.980652913982082
8.219242504086306 1.10386873711022
8.191921697249938 3.5243510481083855
-1.7469989041917953 0.11922769436310121
-5.936431587105374 -11.39624642562259
4.9812374519453755 1.4959154882987291
7.561478069301573 12.105685831027305
-0.7376937938037915 -2.6756392680059458
4.942447324213944 12.021630990094335
-6.7699492856245005 -10.468595666049362
7.29737844977815 9.976748318355597
8.193071560113133 0.5556140417871255
-5.1988045120412725 -9.003992718943055
-1.9762635708104936 -0.9070059785750442
0.7358322572792346 -1.7512213563092063
-6.73613113077121 -10.214043269348684
5.657998940530186 8.83891821145682
8.014438708539949 7.905979920694932
-1.3407520809173943 -1.0260279103177035
5.871649040950147 0.6277081692211811
8.804137231617887 0.3514618795962579
-4.416126769085621 -9.09768791044936
0.08801415053971962 -1.8013902835793973
-0.9935305397223866 -2.4732970529338814
7.219462204530617 7.2964942594892666
6.232928575230072 8.640374239876124
-1.0939297124722804 -1.7422620048346569
7.502978800891086 9.570935803251754
-1.9761692407120273 0.5841052969129228
7.416402050300288 0.5356664615172793
-0.10686386283416804 -2.7188543818422644
-0.9579357997564766 -2.5847079663897508
5.69623087671937 0.7329483223386672
7.9405651523617635 8.104421078924826
6.149940140976559 1.6730513144418144
-3.2182301204020285 -1.3052133209675938
-1.4226436270606997 -2.5345285091826413
6.440804862949918 9.463774425836732
-1.5046748899665225 -2.3624111511167856
6.575980788008918 7.563237234651568
7.396605259430728 10.528685481742214
5.800760820167693 1.6609338733453483
-5.688154579958716 -9.058985451890875
-2.2380564142354302 -0.7097641507582091
7.38912172512457 8.855080822263353
-4.015873222622082 -10.770097801314925
7.981005060172159 0.43134218060061613
5.246700016811022 1.6937298060155295
