250 2
8.83021202037292 10.175688218454296
8.774428478660262 9.192621940938729
-0.902091902812606 -0.9790625596282728
7.5835408702426825 9.431252809487166
-4.427115300823148 -8.91927480241347
5.55241754355602 10.294026437142923
6.85838075628634 1.8276962682838
-1.1507450888884967 -1.19604826169985
-1.0856097390478674 -1.4812189122454507
8.209416048166403 0.41764606772496154
7.545525310734724 10.872265592643158
5.716131665358544 9.021955604583143
7.329189484920619 9.710054393244018
-5.504728247078959 -8.482111566807363
7.366116238117061 2.2698628544402295
7.881614083201024 0.7708928283589466
6.500254268925552 9.710206469303138
-1.4264350320181511 -2.5069352345133216
-4.689903543992772 -9.242282093405134
-4.468452499245956 -9.712737968554366
0.28330330532979264 -0.9192968791281582
7.67257889127066 0.821480492043438
6.861714409440527 1.0905174720857889
7.416059233352491 9.203904268632915
-5.263223059260708 -10.094951351375467
-5.819292417051398 -9.887866768439121
8.156226543180622 9.186182060030172
7.55626382571915 9.54319651398415
6.731818558892424 0.19960594898043343
-1.3222852146992843 -2.4590260379793856
8.622607361183048 9.19362876767318
7.4037508387989694 1.9276020718606852
-5.416160135575319 -10.4440599324605
8.290618172426928 -0.21826565902229744
-5.3879311220194905 -9.488867822115276
-1.4303112447433257 -2.5779342247299715
8.688390837225715 9.659241935222925
6.920986370865045 -0.10932059108789804
-3.1637838289834086 -0.7650686152079083
7.223728456065163 9.673192366251858
-1.1775482517534388 -1.8640685433105102
-6.260484073419922 -9.818932587613249
-7.494330064929303 -9.7882164398754
7.813816441331847 0.7475703410857331
-6.497693574679875 -9.778317702983498
8.931844999702927 -0.40279998233941705
-4.752390125552015 -8.928439158034285
-5.7527700564243816 -10.394274569134764
-1.8648037940549345 -1.6919985145259357
8.104450167315045 10.151950133539392
-6.540592098393066 -8.569869535986687
7.771511335822454 -0.1843554583976691
7.02581117697039 8.792661719418614
-5.9544858371142375 -8.630330453052132
-5.572843625154165 -9.813298582797362
8.389649931596795 1.3979966524974208
7.848202790144286 8.439140318719858
7.418245071943688 8.937558488429097
7.02532346587563 0.525615733717678
-0.06552908813859815 -1.9378307776827643
8.711761814978647 9.928385857560707
7.469692984760765 8.633645234867465
-5.638567787012257 -11.241849360098826
5.972748568954698 7.947522827503624
8.039637120488598 1.6943096538686329
7.011348340235004 8.258810722397676
-5.460189478134653 -9.408341992003693
6.42088147599134 8.835832134710515
-2.4887508420441864 -4.234192068238565
7.73423588562251 0.5444874646587927
7.486690525595471 1.7761991049868244
-1.3968956972736308 -1.6373206012418182
7.165901199541477 8.737521039221571
6.676236997770072 0.32306853935764174
8.151678341588694 9.616716217749657
7.420727588730339 1.233323932047432
7.593057059545919 -1.3894233498465067
-3.5804098595626233 -9.798179336911613
7.753798468030065 8.609084780182153
7.333676112480917 0.7515061461283298
6.979873637848842 10.115010083139321
7.590130284840242 9.371321165195697
-4.7690663177170425 -8.796440638317348
-5.544225200147556 -10.777325113370786
-4.534144895994748 -7.993942899632502
4.960652241739817 10.28244005665375
5.808646065119607 0.35553917628563725
-2.8135007733080704 -3.2764474564100485
7.067860543379183 9.043964489132643
6.29578889037237 -0.29278481047640315
7.307295646792904 9.770529341849471
8.449037503481508 -0.04494860649692167
7.443082910685424 -1.2603126190978469
-4.97474481932791 -10.472182681345835
7.491042121034298 0.31216231813513595
-2.082721122563859 -3.5417175831530083
-4.981027032267959 -10.352963805948574
-2.1777682857900262 -2.3860238319732927
-0.7578938649914613 -2.186570209344524
-4.734825826970889 -8.590519970600408
-0.37640804057032295 -2.9512872011962195
7.119101419979944 0.9952269345992579
-4.943911875757695 -9.6357709406662
-5.673971651673743 -8.204690182738716
7.736606637947409 9.670652766773253
-1.8646561738695298 -2.6453165547951434
9.446596835571292 9.253327986676682
-2.825648387439431 -2.756814304767544
-7.277036206202128 -9.205466598905229
-5.287445333832368 -10.070189910044522
6.227958641160873 1.077142414969105
-5.230680448394131 -10.04613914048807
7.5707983736703275 8.289999048576464
-1.2323720051127762 -1.6989619996462817
-1.2016839576792 -2.4436631747356303
7.313103733746032 9.22184257838545
-3.708210016223812 -9.715902717590081
8.546082911927565 8.88525101853294
7.5255230804997195 -0.2901987465725946
8.466759553169434 1.7303205223942784
-1.607342408144198 -1.642932682790062
-5.967705042073071 -7.707315821954207
7.0728495126794435 -0.6281147984904147
-0.25860540645376484 -2.236904412313148
-1.2215163577669388 -1.3847475140767607
-6.125635188567709 -10.19024534763163
7.463687443685989 0.5800096980333538
7.1857818934644575 -0.42718146201241325
-3.9663621811154535 -10.32121130802838
6.922851602958138 0.005537570277208692
0.2851751064362291 -1.8368849875820543
-2.7918517283762623 -2.40344580246812
-0.7244865106316596 -1.718470423815374
-1.170793328148629 -2.5827528202779484
-0.3010681434410645 -2.44511032710475
-0.9340132178157086 -3.107580054185081
-5.947663528418146 -8.143250203160187
6.364220064938337 -0.3212411407830139
-6.1303903066752286 -10.197752035115137
8.52473720495959 1.358914402101266
7.895612523365716 10.009501289233093
8.416180301609211 -0.1794594236229594
-5.462286880839798 -8.903379988151267
-7.008321019557895 -10.030186390003204
-4.772188092590251 -9.657972336989133
-1.9756922843428621 -1.2426185698300571
-5.746089446335123 -9.161350891628596
8.819064085535242 9.549841751470876
6.5218463379699125 10.903904144847022
7.873297197805835 1.143242243797204
-1.3925085696715074 -0.9384885851267022
-6.4397330402315145 -9.83661288880379
8.85085699070026 11.134458284063548
-4.892779838073962 -10.564440138859085
-1.6055476900016545 -2.070929358056753
8.039640981989196 8.41016247288369
7.129126925788752 0.7436147099061714
6.655574006585804 0.1988091358579382
-5.40411292857567 -9.952892049116128
5.996149223896819 9.694846194858052
-5.99559079435581 -10.859933852444534
-0.7971539703875886 -3.167967705125299
7.56110741399578 10.435157754259782
7.73311515042667 10.35077827054405
-2.671495624950736 -2.907901900363342
-2.2819187313621883 -0.7583967104570721
6.975440033056417 0.4798601164432664
6.1626650445263556 1.5266098881443837
-1.500346933777252 -1.2548906803883604
7.8969626558489345 10.303725645517613
7.127683595734275 -0.33852835997462616
-0.7400887592499491 -2.2305749588074413
-1.9266258416755417 -1.3367287856506294
-0.9404741944767883 -2.7476432290790194
-5.7409213101910375 -9.621499990627346
-0.6152387424724579 -2.284058148840619
6.812580790123676 0.9167186911212402
7.323517575562469 7.97096104737788
-5.141421795118071 -10.319566923493046
-1.0586369364798862 -0.6978672875918788
-5.704219830495603 -8.871568491637685
7.335291324889976 -1.3304721101657617
7.597934542832388 8.8325461147598
7.0063487251485315 10.36455386474415
-4.913105872359864 -10.182106014517673
-0.7305791688917161 -2.498470172280178
-3.3570560691901017 -9.654496202250009
-2.545132218924934 -2.8046320206588886
-4.307158934172669 -9.825871950992859
7.858332985140352 -0.12964103190150533
8.541687312110486 11.395898731156818
-4.235038019822554 -9.651042175930053
9.504657829772777 10.29087827829714
-4.165884565332643 -10.542901005904763
-4.555316675606084 -9.47523100996092
6.675756076618962 -0.13810733851364176
-6.116152515680556 -10.05224528679809
6.7124942298012105 0.8433215750509668
7.684237402066226 1.3529464468480472
6.432038254374283 0.09795427896831888
-1.2967262119597314 -1.9465278589498718
-1.179535684874129 -2.3583117828015516
-6.79214132968216 -9.923754095928262
7.991419313229604 0.9711173991106997
7.971549635530427 2.731468170745729
-1.649805648725903 -0.4459178948048459
-5.775250274382323 -10.953276649848629
5.6365065480362 1.2562423090659791
7.536144429265596 11.359811492497668
-0.9157655684437183 -2.478548412891425
5.631394796474593 11.298680699091872
-6.381444964214415 -10.278621551977192
7.344071978703107 9.811493301463699
7.972385899430932 0.5723867116029946
-5.238794219790249 -9.213455772263513
-1.816543588084956 -1.1922696569416789
0.15588974143484613 -1.8062444771119783
-6.35684994250293 -10.09349253619488
6.1517959719773145 8.983980496446407
7.865570348711688 8.305479921346853
-1.3543534136172477 -1.2788310618454308
6.284078612766943 0.6248188042823077
8.416797296888934 0.42391241182781825
-4.6695740430952295 -9.281597729722645
-0.3152506998302558 -1.8427309696721172
-1.1018286563845148 -2.33139043829356
7.287405618523083 7.8622176222881865
6.5699266153954134 8.839584880751355
-1.1748462365662555 -1.7997285851304878
7.493599506785242 9.516356926842722
-1.8164749843769807 -0.10782509295042986
7.407535346839772 0.557879380497652
-0.456980164102174 -2.509977586590566
-1.0759415727729438 -2.4124165571705563
6.15650176605365 0.7013570974586614
7.811844126036644 8.449800763695865
6.486472140058879 1.3850683644427684
-2.7197919877878904 -1.481874996863533
-1.4139109017214697 -2.3759224064744764
6.721109370100756 9.438421379631798
-1.4735700020166136 -2.250746146062945
6.819419133780029 8.056212513315316
7.416236931177709 10.212902147563057
6.232523543106977 1.376255680008975
-5.594685178275662 -9.253450487134655
-2.006938383303092 -1.0488210548930714
7.410794360773231 8.995735122487522
-4.37848055475811 -10.497895832170327
7.818155717655679 0.4820071761946242
5.829570231574851 1.4001072674054702
