250 2
10.13244819916687 0.5963153169716622
-1.2206930019118494 4.2547692598408275
-0.9875026632357868 4.650398557094371
-4.391327724206997 -0.405425460256935
0.41007377845400433 -8.679454440857587
-8.66740418416405 6.612911955182849
-0.42011319609111286 -8.70255628238175
-8.810656806208893 5.570442119777256
-3.6802563257626604 -1.4142652666694948
-4.040052784547742 -0.5916020179000874
10.046336815322155 0.8184271909868057
-1.1877379088829318 3.8010432816409767
-8.6764481402347 4.454218293816432
9.758072492803494 1.3556141333139329
0.7936508483332345 -8.019204410077808
-4.915580345257094 -0.07277538493080347
-4.363996294100578 -0.1854762476103279
8.675404389892208 0.6584423299859228
-1.3758073044425203 4.6192077327537735
-1.8535741281101374 4.211839945266968
-4.816876479266943 -0.3091117754670225
-4.387079269904587 -1.3831087175239956
9.805862469519461 0.7546629832379695
-7.343860719207726 6.032895509429205
0.3357238721139933 -8.056303142741152
-7.965005209689109 5.898625102762067
-0.027195341947644662 -8.626799602082363
-0.7512771393753765 4.749692142736297
-8.266082905371851 5.1366035164456845
0.48556017217024033 -8.583478479724059
-4.134448952989523 0.6537808982609967
9.496335665426706 0.5103487576345604
9.297075380195594 0.9120718748747392
-1.696477278735249 4.675201972176813
9.476315371566258 0.6550154418632876
-1.360973537800935 5.038293086665855
-8.906079208313729 5.78556101967108
-4.746309470434883 0.4951168712328028
10.197471107264997 0.7795980719583018
9.32571114710636 0.27190945385149146
-4.3584180879291425 0.0567995753535737
-1.6403554945965533 4.565457406028283
-8.2822732866421 6.722173371206143
0.1836681515281537 -9.278520618411397
-7.949135937849229 5.390138685542284
-0.6906119913205222 4.065604715854244
-0.3210953484963775 -9.233133562884733
-5.307954174916122 -0.4736861618101276
-0.2592371561619134 -9.665812213628978
10.200836552440913 0.2943221791648082
-4.696925422768886 0.4221083350248404
-8.665545773986612 5.153447414291918
9.493396472312652 -0.18001325143250035
-8.523639528468289 6.448144493175633
-1.1735354013144452 3.5424006208649708
-8.786548699504236 5.512601714204433
0.04161823366635556 -8.314066264238805
0.09186431068149419 -9.368111837402497
-7.709044395824279 5.933084941507124
-4.268729411360344 0.5355312466644269
-1.9525872295013622 3.7974892741735906
-7.7221749523124 5.492009361293513
9.795679119495443 0.2191675948461379
-0.7983072119205521 -7.973476836137733
-0.43190366003793546 -9.138570867836716
-8.62368983118477 6.24681844116563
-8.230666613900006 5.313639709543044
-5.280635339941774 0.14612237119796112
10.399549943732717 0.4686621007370191
-1.5558680176283097 5.343092176293146
-8.336604250640875 4.8351135788673725
-1.497242247144449 3.908322362516034
-0.0776678582146005 -8.951832975029614
9.901204709268152 0.3997695875054926
8.889107426395812 1.212777811541909
-4.483813546039805 -0.37047462889092164
0.21777267484328855 -9.279581067230238
8.67706990610289 0.9584465872387814
-5.2209227398089295 0.4076559759399858
-4.844642443319096 0.3904260072802535
-0.35860306057689556 -8.406823747840331
10.28997612639267 0.8012055913820136
0.8521899111822968 -8.927314418594653
-8.189803268856865 5.22195724659156
-1.848577343045911 4.560753907426207
9.724665163995915 0.6830056167002668
9.265913047957156 -0.2912573278076722
-8.307847104776608 5.965889136990973
-0.13189284611993154 -9.032651181396453
0.06215763348375478 -8.297266553269953
9.337968324658531 0.6838257649306937
-1.2773060041985136 4.9463611604798565
8.991221845849452 0.6114846815973356
-0.708180250110372 -7.973746570132684
-3.8688863334587023 -0.9405132815040466
10.20389201931125 0.4757860051775202
-1.1272151657558438 -8.522061404017299
-9.299372007223775 5.866090522965338
-8.41951002677349 6.317495605169171
-0.3049866603412254 -8.952280094399073
-4.942115155861406 0.09298654915072557
-8.570261942695746 4.709369418323039
9.467109970356193 0.989169779586583
-8.84511097512314 6.134610910590041
9.301768989861039 0.9244978345551531
-0.012387480179607585 -8.646608340953245
-8.623931080920938 5.00838479807319
0.22418920972652479 -8.622320751908754
9.648935360735033 1.6400905559050856
9.039724708039454 0.7813063919182666
-4.101157623252639 -1.3997423643660911
-2.0735137930011738 4.976811024349269
9.349657079028372 1.2831030736150566
-9.328003814104385 4.696826515562423
0.08340858481565605 -7.669464217192552
-1.0817584183167328 4.874687699512583
-0.3046102990913188 -9.157288725840168
0.32047954982290006 -8.586072425816042
-1.0814751636706754 5.078962998603139
-3.5402406143632295 -0.4174135619639445
8.765666011736855 0.8989038257301024
9.862105881873786 1.237923258324229
-0.685845970059718 5.32649368005337
9.940120225147606 0.7253850988036614
-0.6024475119014506 -9.307771492018407
10.478687436031114 0.7741302081919399
-2.2581331253198016 5.501201332150248
-4.583364913179324 -0.12236987250013967
0.23280976258607886 -8.172988618303593
-4.685647238885576 0.2599059328408208
-8.658243446744779 4.645190905537059
-4.938749670063685 0.37999806903343347
-8.54002281130428 5.443637674507853
-1.0950959622166174 4.094770688646061
-1.9167452306717268 4.83488074933252
9.589963163866305 1.2578087207562143
-0.7038412215998603 4.752244800932527
9.927979223256285 0.1834591260685886
-5.059057290153344 0.2467497886822217
-4.42069691548623 -0.4979811126917898
-1.3287435296592451 4.8179506115086115
-1.372369327588839 3.7012524085125866
-1.3685067743050194 4.057573514610727
-4.951708176732476 0.33857992655702535
-4.346233723735362 0.1722042536323108
1.3416786741990063 -7.5678846675624944
-5.046245136997896 -0.7675493304284684
-4.238792098311624 0.21680667018526606
9.55023704412202 1.0841014263605653
-8.053467591449088 5.508382644176118
-0.7811971427077202 -8.0725309388082
-5.27447892668366 0.1310304753677485
-8.479955305824078 5.56054411405876
-1.4270086118629113 4.04634223805492
9.79752001733936 0.48328028243391385
-0.07935412682637678 -9.704687322352171
9.809541614177517 0.4079750649108417
9.50595670319539 0.06920507334498505
-1.4923015388342855 4.574164585107124
-8.571847868674839 5.302990935370724
-0.37295034635201196 4.240240160175819
-5.344807778111157 0.35958663411093245
-7.648484366927619 5.675543612530472
-1.767261625179565 4.063199265902955
-9.075944135320722 6.329363658409055
0.6955539114285508 -8.40413277403751
-0.6850636361799025 -8.882065985691177
-9.506041614081443 5.267296174968888
0.9137239030192852 -9.09116898759673
-8.42311721991505 5.724664712579951
-0.2206793393340894 -8.44423745253178
-8.496527227451178 4.873036495229005
-8.278061365769565 4.876815016301824
-1.5873419692439 4.717366267738361
-4.12073577256084 -0.2502809477958695
-8.339128397266913 5.336073535101867
10.026165086491249 0.6957838962380668
-1.2245708986939914 3.5724791857186347
-4.792926209784579 0.0748225097249823
-8.644892724234287 5.362412518735532
-0.749715128986425 4.611121768536219
0.01393502544259042 -8.289108086833746
9.534954108552238 1.129195788298592
-8.196544056574913 5.660316297445812
-9.070630173649947 5.073367439264606
9.524562677303827 1.4663810666733337
-8.22118452542248 5.467697637206469
-7.517824781354886 5.717026768120889
-0.019146879743546542 -8.522723490987254
-7.590753773556189 5.43366896884576
-4.582883106380429 -0.4204361685127328
0.34153550303600605 -8.448136413517533
-4.095378217572989 0.4497093255282109
-2.187189809993227 4.787509986108484
-0.7623894867027932 4.54283648816962
-0.6934427841108876 -8.342022609635078
-4.628853848185651 -0.1749175261137464
-4.9635781847044385 -0.6942481342409533
-4.4743961138740165 -0.20169662429104732
10.182111126415965 1.1768781259906427
-7.725014654722065 5.457058226764603
-1.2697223043350885 4.85995446214407
-2.0099591946064757 4.8486661568960665
-1.5402763457273658 4.288162442408963
-9.191315945538634 5.849187906392813
8.407198603131448 1.221620402691391
-5.3654246090103594 -0.00891185518594574
-8.199461652631692 5.9366903395802355
-8.521221937740803 6.194918805974298
-4.846765975983146 -0.32385489923978195
-4.685214233627266 -0.3642828740146566
9.450042987676552 0.6562910833305231
9.462349488527908 1.0661100295094026
-0.10772268813968025 -8.443247438608518
9.308169247821505 1.0894739911607003
-0.40963727888848184 -8.866216914544898
9.553293004203244 1.466417473206925
1.4529428685601367 -8.864022355851459
9.263594443537176 0.7895017330724652
-1.518843109660073 -9.317977579785488
-1.5801108790114313 4.760788708261802
-1.412649527514613 4.8635558436773225
-1.7708078183074822 3.553090573254536
-4.2896060381014784 -0.21231744928394858
-4.9897894461480865 0.4537814669374372
-0.6286742741242061 4.959582049037807
-8.1464813606693 6.045551997212559
-5.188804227023089 -0.1792655704444819
-0.9132589547759093 4.53461504524995
-4.392257550132973 -0.15916725280607324
9.856354315837 0.6200033812211136
-1.7019549283016002 4.403665731572574
0.3153016945408634 -9.357256239438838
-0.30178753506855693 3.7206667354405263
-2.2078044204546923 4.6559689485271685
0.6910692871675098 -8.91101592093316
0.013994500546226276 -9.153852335134054
-4.931761737120785 -0.4964425926212371
-1.4710243110844126 4.661996825566148
9.275562312534671 0.5570202069611082
-7.760473634196439 5.6767978366543845
-4.0619420907966575 -0.08397418058121207
-0.9936465210535035 5.025448799448365
0.10208802943815531 -8.165077936984403
-8.595208751857129 4.871755138556898
-4.7864454012659605 0.15367691246248033
-4.972406573277865 -0.1910595018768478
-0.007591448310583417 -8.165134661998234
-1.894136038972745 4.80190539909768
-0.5394569400282784 -8.8538585658459
