250 2
-0.9375047082185045 0.22121088439151704
-0.49022456568993483 0.06577568006095348
-0.4747283878644509 -0.008248810681113758
0.994281471055076 0.27855921491900837
0.2779234101104709 -0.4214659837311598
1.0770482358744682 0.068729122367122
0.1157700206514384 0.39956700109181564
-0.4106914299908002 0.18257300366592652
0.20405995820124495 -0.4447877670524677
0.18300561364944812 -0.4139959503062192
0.4481491422045813 0.14311452817026954
0.7092451245892625 -0.7588022958186129
-0.4649360932747782 -0.12230102666333695
-0.8216753547022407 -0.5856943713740755
0.5699621922190298 0.8300781086097362
0.002250696413475778 0.5926635542981955
-0.8491028527088074 -0.462400509186589
-0.37513679296603136 -0.8562574117203492
-0.8761312339915454 0.5618131272599979
-0.8636006534567389 0.3391292428704065
-0.781636356246628 -0.5757433371310099
-0.3328912499097675 0.22214163236052026
-0.028358207385409825 -0.5837794109213741
-0.39387523236808125 0.9378364811235557
0.20300907891803718 1.0621394434860634
0.07946069391473927 -0.45636753260312285
-0.5279311533517698 0.0902059757681962
0.08101575957228165 0.4241615225888238
-0.7629321111918431 -0.2953440917393712
0.2996252699350414 -0.3417787564349764
0.4745255635355744 -0.06529159215001315
0.07992051778297211 0.501105238690753
0.3994027352533765 0.08295105314995345
-0.9391617983277778 -0.3257643866252289
-0.5275746580907242 -0.08686267626429943
1.0115218588511274 -0.1935510812448853
-0.3573079060949745 -0.3989612805944553
-0.998911979054933 -0.17814620262924613
-0.4572723945954616 0.2908115473908168
0.28099341801362643 0.5335328887797733
0.07468579146758006 -0.4476586744517053
-0.03775457311284092 -1.0136998589623605
0.41916135148428135 0.1858113070658144
-0.28010363867142446 0.42399294198969173
-0.6408491911495876 0.7373903089638806
0.4372257436839372 -0.8729427211945021
0.9988057947874971 -0.36762469510536433
-0.9853430486352571 0.0964896073188972
0.5715816728517887 -0.7879103025594479
0.3708604346928164 -0.33609317861208104
0.09486464374815598 -0.5112619182697884
-0.2351137588829562 0.46024121994628353
-0.41164589147906916 -0.2208771145650429
0.3472203174964319 0.25903177030043506
0.5424173006870923 -0.8014633248289144
0.7441876720422966 -0.7873158214755542
0.384240601154155 -0.24946494808534314
-0.43237799207345423 -0.2642223231960303
-0.14765527201490297 -0.38196612508649863
0.3654133923662791 0.24877862859640557
0.4896875312720939 0.3916588218712424
0.5356562583204562 0.21890420566593569
-0.3007562707626339 0.9836990465962593
0.6302792464730907 0.6309095871112704
0.9284739443869092 -0.3846479742736125
-0.46833578793961567 -0.9976825998382595
-0.33094632424240633 0.2842081705182361
0.49656106094481 -0.06173657613672723
-0.09846750234732599 1.0116609446660876
0.9312583811740532 -0.2563892404635445
-0.01509631045183046 -0.5484282062262607
0.33704347425152675 0.91262567325937
-0.4664118804646844 -0.192992871588628
-0.9482000656528204 0.09941122579540505
0.5543657900736624 -0.015612411463412502
0.015607002449946575 0.4617026234223334
-0.8029545023157058 0.5662640189577604
0.6974043835895681 0.7694442864922164
-0.12520628443927817 0.9444946728417903
0.5141244311284489 0.872594650372791
-0.970527670329839 -0.07573902905737871
0.17241347754404995 -0.8886343564753563
-0.6613130462341716 -0.7029434268333653
-0.5230886712208325 0.1352181322280142
-0.8097225564038864 0.5452329054399756
-1.0414512850315256 0.12535207297081452
-0.29030613676595507 -0.46661818149562095
-0.3192659462635604 0.28859460564465245
-0.4019642573077014 -0.8592544634300459
-0.22248855256902345 0.4331688989403733
0.36303538517307726 0.19543382706303095
0.5278660504251719 0.06713764343512431
0.9142185416322806 -0.48859817792180255
-0.9777091365589896 -0.09274529505281426
-0.9611762850047006 -0.25848312526373907
0.40236445519681385 -0.3450762700022634
-0.41639413309474965 0.4052222680341718
-0.35292025620453327 0.3174991823258956
-0.16590104985340184 -1.0763838111140234
-0.8722142514429069 -0.5944613959226899
-0.5450821205727182 0.8759172676388621
0.037645348462074686 0.5687386360291639
-0.12206326909854479 -0.4384725329368074
0.36973129462100623 0.9296401009645623
-1.048841623196674 -0.10845484758877269
0.010609420002865669 0.8888629308624219
0.438584584530842 0.06282560550137622
0.2529959785173354 -0.9614856041894302
-0.3710570235332075 0.25249175277361163
0.354285317401268 -0.15200455653787526
-0.061972369992450774 0.509777746666677
-0.4281910233249298 -0.10562932893618728
-0.028078498599880528 -0.4755848987333025
0.42208004463548215 0.33776651158179666
-0.06146640287992411 -0.9861292050309338
0.2064880090751376 0.9223821726935726
0.8971963166269689 0.2818297507855825
0.41200948361163164 0.2960528210094917
-0.34242684398242407 -0.3049723043348208
0.9524443788523589 0.04006489171015064
0.47986744939990794 0.9076738987357331
0.3156080935773198 0.4196302933554507
0.9567551818677259 -0.452252366034663
-0.15130280850356725 0.4726271631067149
-0.7264540540043621 0.750866412657287
0.05236707813238675 0.4307196787959831
0.21740052165673385 -0.5132152153656516
0.5628102546267774 -0.7378712504884594
-0.5514723753770475 -0.8119249924981726
-0.9193150957656915 0.40927649857813775
-0.09227561623341007 1.090245104752757
1.029931626533058 -0.34640460663389444
0.8664657053692596 0.5765913910470912
0.512900538527006 -0.12978690286856642
0.5097028539446472 0.10610821793174885
-0.3118536491274168 -0.35237746546041393
0.29595016315511363 -0.9404192098158544
0.15548159306517417 -0.39115847332649323
-0.007852725771284694 0.45556657302721776
0.5661375416800043 -0.041467120595852544
-0.04306403238971181 -0.4931632149541926
-0.23813093425880502 -0.5589926302183654
-0.15244033348374297 -0.9510581605343161
0.21396036194998858 0.49504734086855184
0.1818337138597371 -0.5305585259170873
-0.4821892321692005 -0.2796966131528173
-0.5671471660232072 0.6220090724914514
1.013876827424262 0.23513875951629515
-0.8573628704532114 0.4511693136127814
0.3571084216552109 -0.4076820163967785
-0.13639774555196868 -0.4879982810312757
0.4044554090186744 -0.3514046387359005
-0.2963195966520108 -0.4135986639277707
0.8522920241415561 0.16777843427051
0.4739108703962606 -0.15598093919922323
-0.26611691435292095 0.43506028309399924
-0.7540641075454897 -0.5997511219091236
-0.00048249509362816717 1.0290370244767824
0.23593482202059246 -0.38553054453906305
-0.011119173088589146 -1.0393428788712056
-0.12914300453102023 0.5164490160241237
-0.8699880669274127 -0.391726602569474
-0.17736784649646964 1.0471838865803835
0.4920271789361496 -0.19069788391438128
0.40546433580595737 -0.3086473904760234
0.7837846496816365 0.42933835247516705
0.4061943223594233 0.28571182523015703
1.0647634871399052 -0.17227407901267944
0.17742854172735015 0.49309201016916165
0.6017651412063534 -0.8236733142379974
0.7865632241109661 -0.6307670702236214
0.15913886388828616 -0.980576253258619
-0.4794913074766382 0.8995653838533773
0.7842201535516764 -0.6068169057149454
0.8168201242296305 0.6060120348330661
0.4270846391120143 -0.9203189181934414
0.7338349471492828 0.6959500234195896
-0.49140310829455675 0.06388419913172706
-0.21639118601197727 -0.5024097497498292
0.11436892705715193 -1.030013530026256
0.7221983845766741 -0.7879141348920184
0.4407707164087128 0.2859706828606014
0.20190660417527712 -0.4415076178289558
-0.3005766625679253 -0.9434053441869521
-0.43685746095851974 0.07148398705677769
0.19973395351190368 0.41977171886573694
0.39109626443823553 -0.15410781248040256
0.911577029301752 0.43119533468682425
0.27862756072169703 0.9165681995665236
-0.41488340730124007 0.43323801476656715
-0.8862836149130957 0.2415732700884742
-0.6322222854130933 -0.7552118118698562
-0.0548186043971947 -0.5193862054363754
0.8702743136128979 0.7173207351691482
-0.7104939708465837 -0.673545950087072
0.4215924646668361 -0.3223637941169547
-0.8082564490491457 0.6683544410434007
0.3400543216607754 1.0134576682921639
-0.4519778985548123 -0.11422850489863748
0.7767362741374071 -0.5451143495245974
-0.4576462067805893 -0.0791254126223859
0.11866051911745418 0.9984051468148962
0.43833871018745724 0.025363949786939677
0.9261653081601845 -0.10161216583127093
-0.3158355013872761 -0.3695229905037294
-0.36950605776625095 -0.9525870292491614
-0.1207891147171879 0.4763051823641065
0.6434893413316101 0.8216793334389413
0.998073463036617 -0.007333484535155845
-0.04961316480880411 -0.4587590255082206
-0.48548380732203056 -0.8155119255357357
0.5024970368175491 0.12084450327552718
0.654040326595239 0.5385195418004729
0.24810737694293544 0.3062574408851146
-0.5293544032844223 -0.006508889699833542
-0.3873407966996228 -0.210495055672572
-0.8917368320108002 -0.07402794537348507
-0.4621310973441305 -0.18739736545041674
-0.15878423564784816 -0.53448278873559
0.8600530057670309 -0.5298471171606848
0.48175807227784045 -0.26060046788942526
0.32978196162618034 0.3475554419271614
0.12458723944830359 0.4744448142541105
-0.5540733605520545 0.1649059395309559
-1.0950090760431157 -0.02960837848202581
0.21404928855311767 0.5138108876899804
-0.5189449862355534 0.8458325647348481
-0.11372942593023158 -0.5384452352942739
-0.9105398704140788 -0.5196532732515037
-0.9480307493145215 0.2607846455070589
-0.5970324067567273 -0.16727598244633932
0.1825579305729739 0.5118259797662085
-0.44369471411871847 0.31660300795737284
0.862257651104048 0.2882255294996127
0.2702347620100409 0.9569620061919522
0.709327722585967 0.7007644838883537
-0.22627129659040685 -0.4277195713628106
0.2048241116806009 -0.9961496199237829
0.31513030807641285 -1.0070847621718764
-0.40277693771930995 -0.8870155909097791
-0.09910183550344104 0.44640140742305645
-0.5552996367497953 0.8252442185939843
-0.38203624696505534 0.3516839191573311
1.0038127476153884 0.3970999694818916
-0.7221826512948082 0.8331018812401719
-0.7612891257092664 0.7109905513364888
0.9688764563661931 -0.06164527254528518
-0.2663371390291948 0.8916188773869869
-0.4466259839668038 -0.08705510749148948
-0.6490962285225441 -0.7267569857118108
