250 2
-0.7956783806825432 0.8548947658730461
0.3753875913408032 1.222813736649663
0.3889274951578128 -0.20257696122557348
0.6206690782115575 0.9867689684129574
1.882447736037233 0.6300532232307617
0.08081180956071014 0.10995362228049949
0.19542062050068332 1.19848849210912
0.07027010790194682 0.959131350493825
-0.4421897748775486 0.7675903405428615
0.06399818153579227 0.12662029428792365
0.46721471633959544 0.7789898987587265
0.9184725591291398 -0.4666300700771476
0.18504800912930913 0.31698323387999283
0.9118309511072792 0.5458873767607686
0.3806542459968335 -0.2317503631982393
0.11042716175371925 -0.18890975825043427
-0.020094179281057944 0.34739216535309825
1.1689519589876063 -0.26234033977527904
-0.011276133495090735 0.38495884441843803
-0.1843468445377033 1.1461594852019317
0.056317668241747845 -0.16798236729705368
-0.9107204495700757 0.2782377134168408
1.0848547075530122 -0.6082086956919528
0.49188892062338263 0.8697589923299236
0.10015533640901123 -0.0005189641919633985
1.1238826943906515 0.00026081466564963074
-0.9156285185366648 -0.15813137985910897
-0.3454316432864063 0.8060538451299913
1.0021717164952684 -0.17221261822214956
0.03155856638208726 0.44137513379801374
1.209107311032446 -0.4924604847296804
0.5138178311498318 -0.4498154966919442
-0.37243483512695813 0.8403562335472885
1.7297885596550489 -0.4031556039501204
-0.3332523216894477 0.9522215982188514
0.8383993551412481 -0.23344098794839957
1.3790437426056228 -0.28638218343400285
1.785900323564404 0.13267013622558677
1.518706786311275 -0.6001554153073118
1.9994326789857917 0.012718475901999732
0.8909459892149448 -0.6049260294623008
-0.8516591383623027 0.06746358480862288
1.3077141269747974 -0.384999138931738
-0.3032469756501478 0.976149684371436
-1.13668828268752 0.48383259149740415
-0.009807643996500458 0.2883445701414269
1.6039318356690437 -0.22928553857887832
1.7372815315734793 -0.21340699583337108
1.0477738430166832 0.6399828213796268
-0.8066686224297535 0.6341126196180511
0.5325686044715633 0.8910070220807496
0.07807705089934816 0.18924021284731743
1.4390618646484665 -0.3550675190855947
0.2982739455084514 -0.33233000869331447
0.5984209940189428 0.9429682773856292
-1.0170394378487926 0.13828764715032205
1.4156403783224665 -0.4101313930751765
1.074572931318219 -0.3492286141626679
-0.10884236375574272 0.9008843617553303
1.1232318592336374 0.06180750980557994
0.8018351401448605 0.7093239071331839
0.41347394812898103 -0.37554965076191055
0.48379748384744864 0.5484078962889711
0.7181029657670346 0.9566877984940987
1.0170816829039118 -0.039980392750086385
0.37234910236006086 0.8002770624850926
0.5305218883591306 0.6666092494936593
-0.11590591010060508 0.9645556821181258
0.02036856930309863 0.9083099387504243
0.27603539187956055 0.11077735020501442
0.7364503418120525 -0.38057070936241616
0.36511211858169984 -0.30228051236405323
1.0963019458188654 0.21789607177538758
-1.1034899524462167 0.5614455435135075
0.8614300594855263 0.40797357260357814
1.2275081616720072 -0.24453765915895054
-0.737590428936485 0.7919990928834778
1.2615203573301919 -0.5712004301669381
1.7468840495674272 0.03585551275398091
-0.1217002315919699 1.1506862679431533
-1.1576457309476875 0.050722757074824126
1.8346615041731487 0.0050895020497915035
0.9583475225031235 -0.03445258681592856
-0.7000957842451594 0.6515585420568812
1.1303508988405835 0.43835102680626503
-0.2744634280889007 0.7577950980881009
-0.1054885942357139 0.4820621147722367
-0.4748621325398227 0.901127535977412
-0.6123408901218391 0.9729751315128539
-0.6286128499781475 0.8110574373331476
1.3178763080504394 -0.536718673649349
0.99858329581242 -0.5319025312511322
-0.8122065338599052 0.3004464764962488
0.4242787264098248 0.8960641481901801
2.067516649583085 0.2707648207020553
0.24106533444040448 0.6913277949155845
1.0044182069236092 0.5032924880062604
0.7510599282151117 -0.5436649140183688
0.8264002352943661 0.5906947938606154
0.44116475586424203 -0.2202364492472026
1.444587022630707 -0.17769343185134628
1.9656855466616066 0.3494929228426063
1.9066935948309085 0.056037357470169004
0.8750737694271102 0.3846948984692207
0.21373109143420504 -0.08764269238317948
0.07795838353735571 0.08105372508931402
-1.1631037308069283 0.15351261322784776
1.1057389186974083 -0.3282705667346668
-0.4071045232770758 0.3083443224469917
-0.6950570604940214 0.39132739861163374
0.7934915045547409 -0.49354992502047523
-0.8775952754630548 0.6044414950229613
0.78137536346612 0.4808352282250627
1.1893652655904285 -0.34757738097174246
1.8608506649487038 0.47955466046217915
0.8708987166239814 -0.3700316577028631
1.1148326184654689 0.03850016861922312
0.26646709963422593 -0.21460668989992576
0.22993795583592613 0.9610478306647827
1.7957010490681353 0.31262086459902727
-0.6964100651366795 0.7210239899465364
-0.5996231805754318 0.7840361810794788
0.7500542662155111 0.4595217917169617
-0.2329773297697429 1.1524542782303964
-0.7586951203614077 0.6627755052737208
0.22728125536409438 0.35586000880648255
-0.4391443734089831 0.8583616581566392
0.9996953703002293 0.4287175013191177
0.08499166483523773 0.26580910063024127
-0.47457244732308024 0.9018215251375032
1.856389238715396 -0.1640219862029856
-0.13008161939573293 0.8587570142234328
1.5649470472017288 0.014440600931999142
0.1707218560992635 -0.3122274581274089
1.9452538616742372 0.41518948699947567
1.2499049049039408 -0.4910004652203855
1.0968950077312172 -0.5092387280025197
1.1164133454773375 0.5703086515463861
-1.1044613919832 0.4575604045563904
0.8823085412675 0.7893068767936832
0.9077673598757008 -0.3318279804173958
-0.12506028578988207 0.9825238025638521
0.2703244144143874 0.8910563327039567
0.597501337569814 0.7918446785056563
-0.29325184495173834 0.9609077979999282
0.42107650960536724 -0.5308940963613689
0.9043311581179841 -0.5792987648365931
0.4450562961775354 1.1049121105189006
1.1540216764012456 -0.541349502180421
0.10018294640329872 0.12705276486636435
0.619887057736756 0.47296972335381277
-0.9502170041920343 0.222947529699779
1.4391187181914429 -0.1329837868825069
0.24955094317696747 0.1050951141068027
1.2895895178893895 -0.4119669978918064
-0.5571140825944172 0.7868379625750793
0.06702345471067708 0.981057841137092
-0.2656725478731685 0.9983552659270082
0.25090789137101016 -0.26227686784478343
-0.6601577929563862 0.6306221152992799
0.38105375408625336 0.9008432805791317
0.13452923001101103 -0.07892247331409148
0.8438892644737399 0.30568628471600734
0.32467884556977367 1.0724067089032845
1.8694424315133968 -0.006888216370015174
-0.46581894511658084 0.9487688898879557
1.743828342114388 -0.128072760815996
-0.7041791131873547 0.46561189310849693
0.2087919558298002 0.055117294879679674
-1.086954242995421 0.10844226800889953
0.09259398538797733 1.0855340449295046
0.5165004503200562 -0.3673404451140361
0.7318260631142948 -0.35258510552530536
1.7301579847355053 -0.04446536203423156
0.8237139178952267 0.5249034057292957
-0.14002840624952365 0.31579298211682705
-1.0464099313061308 0.2992678217264281
1.7004850498191322 -0.35348075468180384
0.5505349382221603 0.775694262972093
2.022555605540273 0.14208151643277028
1.8852208709189684 0.468270356143314
-1.005549606563162 0.44325484740766774
0.7736948003131365 0.26093705080684154
1.8308061481554398 0.31881667529625346
0.6892709888341818 -0.2745998835383714
1.320764515938245 -0.44499402555423906
2.18436150413048 0.21234966956817136
0.24247402341133797 0.8781533466393152
1.707371591137186 -0.3890952109876644
1.671670721103475 -0.10224659897384555
0.6716676114913571 0.8628989804734161
0.8419934626270777 -0.5468828235736382
-0.5548460264260537 0.7840382471253523
0.815676104203014 -0.48320995821164425
2.1720137239078534 0.4313015124820632
0.19370430145026468 0.30108544866250814
0.4526463883531706 1.1299351536927817
-1.126456650783994 0.16707813049851236
-0.5462592493887533 0.776115796893267
1.804503650861462 -0.11079192801103932
-0.9761734313114621 0.311993075069111
-0.1287442677239469 1.180368015473196
0.6305527237935685 -0.4833969914153453
0.15808162851135887 0.9110526679908182
0.022998179309606792 -0.043684786073799144
0.24212303773979688 -0.06144050478010249
0.8533729927421992 -0.5040168623470466
0.5567854893205687 -0.248781620006077
1.878265623201989 0.11164693082157393
1.5837955685181877 -0.4426558835897406
0.7381926978034111 0.776172313424006
1.6349137829862759 -0.22857733201095734
-0.19696467636932816 0.4605572334848983
1.966477182640475 0.2754350667225514
0.7818322939696003 0.4539976754723969
1.844586344498127 -0.12733178565639006
-0.7842061348909688 0.6647948867585456
0.06604342938323361 0.11491731078087994
0.7520708086013586 0.37426728708470125
0.8976960668983085 0.8301848471986991
1.900773041433104 0.19860002655146688
-1.1035803268596431 0.06588848659986843
1.7508041913395225 0.02491451478226818
-0.8968688040314393 0.588275596980808
-0.7774620368668024 0.21568976064222128
0.5534567144595913 -0.2679711966686822
0.9366787577430091 0.1262744906012374
-1.0595389991774524 0.3023883361810997
0.8144247279672219 0.055334675412323966
0.1904041284712151 0.8889616534928988
0.06010056232360819 0.2844878683164877
0.13431299033352673 0.9520287563439741
1.122310758080996 -0.32851504386297425
1.7357745141039773 0.6385733721412705
-0.7101919950074921 0.527588756119636
0.8112991099949829 0.8327569774347074
0.5695432777674323 0.37295862746692265
0.41922230127655924 -0.48769160715012305
-0.23379845489670387 0.9275476961336043
1.44449546900571 -0.48098417194920084
0.2872361109613801 -0.21097301552733533
2.0666466386717355 0.33463095870674164
-0.5852247263615472 0.5948432056286456
0.8223713023844132 0.3294514488933031
0.8456845836027514 -0.3782813196875977
1.0834095662482217 0.04998285773289168
-1.0003360388548797 0.24559753485954225
-0.7713752971791294 0.7545103562627646
2.0709058134413376 0.4102748978378101
0.15799949514457504 -0.08420332148413251
